…
    ## 
    ## Attaching package: 'lubridate'

    ## The following object is masked from 'package:base':
    ## 
    ##     date

    ## Loading required package: gsubfn

    ## Loading required package: proto

    ## Loading required package: RSQLite

    ## # A tibble: 24,518 x 7
    ##    range   millstyle order    duedate       date   yds  loom
    ##    <chr>       <chr> <int>     <date>     <date> <dbl> <int>
    ##  1   738 738-22554-1 40738 2015-08-07 2015-07-15  40.0     1
    ##  2   738 738-23306-1 40738 2015-08-28 2015-07-16  32.1     1
    ##  3   738 738-23306-1 40738 2015-08-28 2015-07-16  32.1     1
    ##  4   738 738-23306-1 40738 2015-08-28 2015-07-17  31.0     1
    ##  5   738 738-23306-1 40738 2015-08-28 2015-07-17  31.0     1
    ##  6   738 738-23306-1 40738 2015-08-28 2015-07-20  32.0     1
    ##  7   738 738-23306-1 40738 2015-08-28 2015-07-20  32.0     1
    ##  8   738 738-23306-1 40738 2015-08-28 2015-07-20  30.5     1
    ##  9   738 738-23306-1 40738 2015-08-28 2015-07-20  30.5     1
    ## 10   738 738-23306-1 40738 2015-08-28 2015-07-20  32.0     1
    ## # ... with 24,508 more rows
…
